[
  { "name": "Enlighted Where Demo", "pathname": "/where", "location": "./routes/where/view.js" },
  { "name": "Wework Location scorecard Demo", "pathname": "/locationscorecard", "location": "./routes/locationscorecard/view.js" },
  { "name": "Stealth Startup Boilerplate", "pathname": "/boilerplate", "location": "./routes/boilerplate/view.js" },
  { "name": "Excel Splitter", "pathname": "/excel", "location": "./routes/excel/view.js" }
]